%YAML 1.1
%TAG !u! tag:unity3d.com,2011:
--- !u!74 &7400000
AnimationClip:
  m_ObjectHideFlags: 0
  m_CorrespondingSourceObject: {fileID: 0}
  m_PrefabInstance: {fileID: 0}
  m_PrefabAsset: {fileID: 0}
  m_Name: dead 1
  serializedVersion: 6
  m_Legacy: 0
  m_Compressed: 0
  m_UseHighQualityCurve: 1
  m_RotationCurves: []
  m_CompressedRotationCurves: []
  m_EulerCurves: []
  m_PositionCurves: []
  m_ScaleCurves: []
  m_FloatCurves: []
  m_PPtrCurves:
  - curve:
    - time: 0
      value: {fileID: 21300000, guid: 0e029902385ae8a49ac7de963dc2dcba, type: 3}
    - time: 0.083333336
      value: {fileID: 21300000, guid: 5a186486ed403a94392256fbc81c9cca, type: 3}
    - time: 0.16666667
      value: {fileID: 21300000, guid: 44bd90c93f228914d8b91965ed3d541c, type: 3}
    - time: 0.25
      value: {fileID: 21300000, guid: 8f97abaedf5687c4186cc0b2f1643ca7, type: 3}
    - time: 0.33333334
      value: {fileID: 21300000, guid: 64d5d027a20901549a2e677cf090b5e1, type: 3}
    - time: 0.41666666
      value: {fileID: 21300000, guid: 0ddcb4a15d146aa449f40a2c71183142, type: 3}
    - time: 0.5
      value: {fileID: 21300000, guid: 53c679f79adf9ff47a3fed725727b034, type: 3}
    - time: 0.5833333
      value: {fileID: 21300000, guid: b3bd2230ea3a35c4fa41cd79785c0742, type: 3}
    - time: 0.6666667
      value: {fileID: 21300000, guid: 093dbe1d2e4745b43885205f280810a7, type: 3}
    - time: 0.75
      value: {fileID: 21300000, guid: c60830d8aadccfd45b57e52aa279aa57, type: 3}
    attribute: m_Sprite
    path: 
    classID: 212
    script: {fileID: 0}
  m_SampleRate: 12
  m_WrapMode: 0
  m_Bounds:
    m_Center: {x: 0, y: 0, z: 0}
    m_Extent: {x: 0, y: 0, z: 0}
  m_ClipBindingConstant:
    genericBindings:
    - serializedVersion: 2
      path: 0
      attribute: 0
      script: {fileID: 0}
      typeID: 212
      customType: 23
      isPPtrCurve: 1
    pptrCurveMapping:
    - {fileID: 21300000, guid: 0e029902385ae8a49ac7de963dc2dcba, type: 3}
    - {fileID: 21300000, guid: 5a186486ed403a94392256fbc81c9cca, type: 3}
    - {fileID: 21300000, guid: 44bd90c93f228914d8b91965ed3d541c, type: 3}
    - {fileID: 21300000, guid: 8f97abaedf5687c4186cc0b2f1643ca7, type: 3}
    - {fileID: 21300000, guid: 64d5d027a20901549a2e677cf090b5e1, type: 3}
    - {fileID: 21300000, guid: 0ddcb4a15d146aa449f40a2c71183142, type: 3}
    - {fileID: 21300000, guid: 53c679f79adf9ff47a3fed725727b034, type: 3}
    - {fileID: 21300000, guid: b3bd2230ea3a35c4fa41cd79785c0742, type: 3}
    - {fileID: 21300000, guid: 093dbe1d2e4745b43885205f280810a7, type: 3}
    - {fileID: 21300000, guid: c60830d8aadccfd45b57e52aa279aa57, type: 3}
  m_AnimationClipSettings:
    serializedVersion: 2
    m_AdditiveReferencePoseClip: {fileID: 0}
    m_AdditiveReferencePoseTime: 0
    m_StartTime: 0
    m_StopTime: 0.8333333
    m_OrientationOffsetY: 0
    m_Level: 0
    m_CycleOffset: 0
    m_HasAdditiveReferencePose: 0
    m_LoopTime: 1
    m_LoopBlend: 0
    m_LoopBlendOrientation: 0
    m_LoopBlendPositionY: 0
    m_LoopBlendPositionXZ: 0
    m_KeepOriginalOrientation: 0
    m_KeepOriginalPositionY: 1
    m_KeepOriginalPositionXZ: 0
    m_HeightFromFeet: 0
    m_Mirror: 0
  m_EditorCurves: []
  m_EulerEditorCurves: []
  m_HasGenericRootTransform: 0
  m_HasMotionFloatCurves: 0
  m_Events: []
