%YAML 1.1
%TAG !u! tag:unity3d.com,2011:
--- !u!74 &7400000
AnimationClip:
  m_ObjectHideFlags: 0
  m_CorrespondingSourceObject: {fileID: 0}
  m_PrefabInstance: {fileID: 0}
  m_PrefabAsset: {fileID: 0}
  m_Name: coin anim
  serializedVersion: 6
  m_Legacy: 0
  m_Compressed: 0
  m_UseHighQualityCurve: 1
  m_RotationCurves: []
  m_CompressedRotationCurves: []
  m_EulerCurves: []
  m_PositionCurves: []
  m_ScaleCurves: []
  m_FloatCurves: []
  m_PPtrCurves:
  - curve:
    - time: 0
      value: {fileID: 21300000, guid: d59c341965f8bff4fa52c8b1feaad1f9, type: 3}
    - time: 0.083333336
      value: {fileID: 21300000, guid: 252ba50d24f7f944db3200186a5d41b1, type: 3}
    - time: 0.16666667
      value: {fileID: 21300000, guid: 3bf589376db67fc4faeceecb35c77ed0, type: 3}
    - time: 0.25
      value: {fileID: 21300000, guid: 6a3fd9d586465d145a07e036fdad02f0, type: 3}
    - time: 0.33333334
      value: {fileID: 21300000, guid: 2f07b4a1c2e57a44caaae443019f1cd8, type: 3}
    - time: 0.41666666
      value: {fileID: 21300000, guid: 9d43586c88281f140beabce899b2fb22, type: 3}
    - time: 0.5
      value: {fileID: 21300000, guid: bccedb9601a71e84fb10ac825ddb87cd, type: 3}
    - time: 0.5833333
      value: {fileID: 21300000, guid: a931334d2ac537e4e9f19a1f440d280f, type: 3}
    attribute: m_Sprite
    path: 
    classID: 212
    script: {fileID: 0}
  m_SampleRate: 12
  m_WrapMode: 0
  m_Bounds:
    m_Center: {x: 0, y: 0, z: 0}
    m_Extent: {x: 0, y: 0, z: 0}
  m_ClipBindingConstant:
    genericBindings:
    - serializedVersion: 2
      path: 0
      attribute: 0
      script: {fileID: 0}
      typeID: 212
      customType: 23
      isPPtrCurve: 1
    pptrCurveMapping:
    - {fileID: 21300000, guid: d59c341965f8bff4fa52c8b1feaad1f9, type: 3}
    - {fileID: 21300000, guid: 252ba50d24f7f944db3200186a5d41b1, type: 3}
    - {fileID: 21300000, guid: 3bf589376db67fc4faeceecb35c77ed0, type: 3}
    - {fileID: 21300000, guid: 6a3fd9d586465d145a07e036fdad02f0, type: 3}
    - {fileID: 21300000, guid: 2f07b4a1c2e57a44caaae443019f1cd8, type: 3}
    - {fileID: 21300000, guid: 9d43586c88281f140beabce899b2fb22, type: 3}
    - {fileID: 21300000, guid: bccedb9601a71e84fb10ac825ddb87cd, type: 3}
    - {fileID: 21300000, guid: a931334d2ac537e4e9f19a1f440d280f, type: 3}
  m_AnimationClipSettings:
    serializedVersion: 2
    m_AdditiveReferencePoseClip: {fileID: 0}
    m_AdditiveReferencePoseTime: 0
    m_StartTime: 0
    m_StopTime: 0.6666666
    m_OrientationOffsetY: 0
    m_Level: 0
    m_CycleOffset: 0
    m_HasAdditiveReferencePose: 0
    m_LoopTime: 1
    m_LoopBlend: 0
    m_LoopBlendOrientation: 0
    m_LoopBlendPositionY: 0
    m_LoopBlendPositionXZ: 0
    m_KeepOriginalOrientation: 0
    m_KeepOriginalPositionY: 1
    m_KeepOriginalPositionXZ: 0
    m_HeightFromFeet: 0
    m_Mirror: 0
  m_EditorCurves: []
  m_EulerEditorCurves: []
  m_HasGenericRootTransform: 0
  m_HasMotionFloatCurves: 0
  m_Events: []
